310941, 박은선
131804,C.S. 리 (C.S. Lee)
63528,김동령 (Kim Dong Ryung)
75887,김기훈
75890,김동우
78312,김정우
97543,김기흥
113918,김동한
118889,감영화
141658,김현정
142586,김진만
147442,김권
156926,김종재
174611,김한국 (Han-kook KIM)
206216,곽자형
272550,김란
298206,김도연
298883,김용재 (Kim Yong Jae )
298889,김남순
298891,곽일진
299302,김광운
299649,김정윤
299662,권혜미
299669,김재범
300080,김정윤
300712,김연주
306359,김민 (Kim Min)
306372,김은별
306375,김다원
306381,강희송
306996,김성훈
307370,김영준 (Kim Young Jun)
308411,김용준
308415,곽용진
308455,김성은
310544,강승원
310560,김나래
310561,김예진
310570,김시진
310933,김선좌
310938,김다움
310946,김주미
310972,김건
312435,권정호
312437,김수정
312645,김예슬
312662,강대호
312974,곽지혜
312975,김다정
313916,권민석
314284,김응형
314667,김정인 (Jung-in KIM )
314819,김그림
314820,김보경
314832,김필성 (Kim Pil-Sung)
314833,김영광 (Kim Yung-gwang)
315583,김소양
316090,김은애
316333,권민정
316348,김행자
316349,강홍길
316355,김태래
316356,김선호
316357,강신우
316821,고동균
316875,고은해
316884,김왕건
316888,김종곤
316896,김순하
316900,김서린
316931,김성민
317109,김영운
317114,강성수
317118,김은수
317121,강영모
317123,공민영
317127,김가영
317131,김화순
317132,김경심
317135,김초희
317140,고태은
317150,고혜란
317153,강애경
317156,고승보
317160,김영
317161,김지예
317164,김용호
317185,김안라
317191,강현석
317305,김주상
317308,김훈영
317309,김균현
317312,김준미
317319,길병주
317321,강효민
317323,김송이
317328,김병곤
317335,김기한
317340,고유미
317344,김동현
317185,김안라,88453,점쟁이들
317185,김안라,78790,내가 살인범이다
75887,김기훈,52498,이파네마 소년
75887,김기훈,44275,사라짐의 양식
75887,김기훈,43710,낯선 신경, 힘 익숙한
316349,강홍길,100707,허름한 의자
316357,강신우,100717,창공을 향해
316356,김선호,100717,창공을 향해
313916,권민석,98850,데이드리밍
316355,김태래,100717,창공을 향해
310560,김나래,96691,개식이 이야기
310561,김예진,96691,개식이 이야기
75890,김동우,85495,순한 아이들
75890,김동우,75034,얼어붙은 땅
75890,김동우,51851,바다 쪽으로, 한 뼘 더
75890,김동우,46723,지구에서 사는 법
75890,김동우,47916,나무
75890,김동우,43713,살아남은 자의 슬픔
75890,김동우,47913,나는 집으로 간다
315583,김소양,100167,멍
113918,김동한,97054,연착
113918,김동한,79105,체포왕
113918,김동한,53034,하모니
113918,김동한,50176,작전
113918,김동한,37926,어린 신부
113918,김동한,47799,간이섬
113918,김동한,32407,토크 투 힘
317305,김주상,96961,집으로 가는 길
317305,김주상,90885,나의 PS 파트너
317305,김주상,89873,용의자X
307370,김영준 (Kim Young Jun),95015,벚꽃나무 코끼리 숲
316348,김행자,100705,마지막 편지
300080,김정윤,101523,냄새가 난다
300080,김정윤,90637,석교동 열대야
314833,김영광 (Kim Yung-gwang),99543,달려라 고양이
314832,김필성 (Kim Pil-Sung),99541,수다, 수다, 수다…
312662,강대호,101504,퀴즈쇼
312662,강대호,98362,페르소나
310570,김시진,118170,딸꾹질
310570,김시진,97005,거인의 방
312645,김예슬,98341,예습
174611,김한국 (Han-kook KIM),99325,학교너머
174611,김한국 (Han-kook KIM),72412,블랙 홀릭
317312,김준미,89873,용의자X
317109,김영운,88253,늑대소년
298883,김용재 (Kim Yong Jae ),89540,용궁탕
298889,김남순,89549,파란 보자기속에 담긴 희망이야기
298889,김남순,89548,당산 할매 오시는 날
316931,김성민,100917,저 만치에
314820,김보경,115002,하늘 너머
314820,김보경,99535,투 비 컨티뉴드
316333,권민정,100487,선녀와 나무꾼
310933,김선좌,97086,쉬 [∫]
317118,김은수,88453,점쟁이들
300712,김연주,94007,사랑은 우연을 좋아하나 봐요
300712,김연주,90769,누가 나를 죽였나
316884,김왕건,101312,오래된 기찻길 그리고 오래된 사람들
312435,권정호,97949,고양이 날다
298891,곽일진,101310,고민하는 당신에게
298891,곽일진,89551,순자언니의 결혼서약
317308,김훈영,103781,뫼비우스
317308,김훈영,99774,붉은 가족
317308,김훈영,89873,용의자X
312437,김수정,97950,기린초
317114,강성수,115210,만찬
317114,강성수,107917,완전 소중한 사랑
317114,강성수,89873,용의자X
317114,강성수,85640,파파로티
317309,김균현,89873,용의자X
306359,김민 (Kim Min),93477,여기, 우리가 만나는 곳
310938,김다움,97096,3개의 태양
317191,강현석,88453,점쟁이들
131804,C.S. 리 (C.S. Lee),103619,덱스터 시즌8
131804,C.S. 리 (C.S. Lee),105877,더 레드 로빈
131804,C.S. 리 (C.S. Lee),95224,덱스터 시즌7
131804,C.S. 리 (C.S. Lee),86495,덱스터 시즌6
131804,C.S. 리 (C.S. Lee),86313,이노센스 블러드
131804,C.S. 리 (C.S. Lee),92822,덱스터 시즌5
131804,C.S. 리 (C.S. Lee),92821,덱스터 시즌4
131804,C.S. 리 (C.S. Lee),66103,텐더니스
131804,C.S. 리 (C.S. Lee),51947,언데드
131804,C.S. 리 (C.S. Lee),92820,덱스터 시즌3
131804,C.S. 리 (C.S. Lee),92819,덱스터 시즌2
131804,C.S. 리 (C.S. Lee),50420,척
131804,C.S. 리 (C.S. Lee),65713,덱스터 시즌1
131804,C.S. 리 (C.S. Lee),82794,클라우드
131804,C.S. 리 (C.S. Lee),68444,데이빗 & 레일라
131804,C.S. 리 (C.S. Lee),82793,크럼플
131804,C.S. 리 (C.S. Lee),38799,스텝포드 와이프
131804,C.S. 리 (C.S. Lee),66380,법과 질서 - 뉴욕 특수수사대
131804,C.S. 리 (C.S. Lee),68697,법과 질서
131804,C.S. 리 (C.S. Lee),81906,애즈 더 월드 턴즈
316821,고동균,100765,천국의 국경을 넘다 2
312974,곽지혜,116287,히어애프터
312974,곽지혜,98692,비폭력저항:평화롭게 아내의 입을 틀어막는 법
317321,강효민,93728,관상
317321,강효민,89873,용의자X
310544,강승원,96673,마씨몽
312975,김다정,98694,향기
316888,김종곤,88253,늑대소년
317323,김송이,89873,용의자X
298206,김도연,99533,지난 여름
298206,김도연,88144,6월의 산
298206,김도연,78864,일상적인 삶
308455,김성은,95429,달의 몰락
317121,강영모,88453,점쟁이들
310941, 박은선,97099,성
310946,김주미,97405,한국어 수업
314819,김그림,115002,하늘 너머
314819,김그림,99535,투 비 컨티뉴드
316896,김순하,88253,늑대소년
317127,김가영,101319,나의 친구
317123,공민영,90639,마이 라띠마
317123,공민영,88453,점쟁이들
317319,길병주,89873,용의자X
206216,곽자형,97652,뜨거운 안녕
206216,곽자형,99589,목격자의 밤
206216,곽자형,83098,페이스 메이커
206216,곽자형,78720,돈 크라이 마미
206216,곽자형,84630,철암계곡의 혈투
206216,곽자형,84327,그 집 앞
206216,곽자형,71932,친정엄마
206216,곽자형,52747,부당거래
317140,고태은,88453,점쟁이들
78312,김정우,47662,성 발렌타인
78312,김정우,47661,색다른 동거
78312,김정우,47658,전투의 매너
78312,김정우,63150,최강 로맨스
78312,김정우,52495,구세주
78312,김정우,36666,태극기 휘날리며
78312,김정우,28855,은행나무 침대 2 - 단적비연수
78312,김정우,19500,쉬리
78312,김정우,17201,은행나무 침대
156926,김종재,97044,변절자
156926,김종재,51645,매트릭스 컴퍼니
317335,김기한,118791,형아
317335,김기한,101369,너와나 그리고
314284,김응형,99434,수업
316090,김은애,100451,결투
317328,김병곤,101356,안티 롯데
142586,김진만,94596,오목어
142586,김진만,70680,그믈
142586,김진만,51027,밀양 아리랑
142586,김진만,46798,소이연(所以然)
142586,김진만,51025,볼록이 이야기
316900,김서린,107924,수상한 그녀
316900,김서린,93017,배우는 배우다
316900,김서린,94775,7번방의 선물
316900,김서린,88253,늑대소년
316900,김서린,77017,전국노래자랑
141658,김현정,66602,라듸오 데이즈
141658,김현정,60311,황진이
141658,김현정,36398,스캔들 - 조선남녀상열지사
141658,김현정,31607,고양이를 부탁해
306375,김다원,93494,특별한 간식
317340,고유미,101382,두 얼굴
97543,김기흥,87216,개구쟁이 스머프 2
97543,김기흥,96968,극장판 나루토 질풍전: 로드 투 닌자
97543,김기흥,76377,랭고
97543,김기흥,75901,엘리노의 비밀
97543,김기흥,72718,파워 레인저 극장판 - 엔진 포스 VS 와일드 스피릿
97543,김기흥,69485,하루가 저물어가는 시간의 김씨 할아버지
97543,김기흥,53941,빨간 모자의 진실
317135,김초희,118852,우리순이
317135,김초희,101331,겨울의 피아니스트
317344,김동현,101386,넋두리&Holic
317132,김경심,101327,광주의 어머니 조아라
317131,김화순,101326,오월을 걷는 여자
299649,김정윤,90291,중석씨가 쏘아올린 작은 공
306372,김은별,93490,22살 나의 이야기
316875,고은해,100789,깊이에의 강요
272550,김란,101536,구루마
272550,김란,83491,시선
272550,김란,75396,평양성
317161,김지예,88453,점쟁이들
317160,김영,88453,점쟁이들
317164,김용호,103762,노브레싱
317164,김용호,103271,친구2
317164,김용호,99794,더 테러 라이브
317164,김용호,93728,관상
317164,김용호,92575,은밀하게 위대하게
317164,김용호,88453,점쟁이들
306381,강희송,94006,꿈을 찾아가는 나
308411,김용준,95065,여우모자
118889,감영화,66599,허밍
118889,감영화,61025,애정결핍이 두 남자에게 미치는 영향
308415,곽용진,95070,아시아의 옛이야기: 중국 - 괴물 연
308415,곽용진,95069,아시아의 옛이야기: 베트남 - 수박
299302,김광운,81961,스쿠터의 하루
299302,김광운,89571,스쿠터의 하루
314667,김정인 (Jung-in KIM ),99321,충심, 소소
299662,권혜미,90713,사람이 미래다?
317156,고승보,88453,점쟁이들
317156,고승보,72560,알투비:리턴투베이스
63528,김동령 (Kim Dong Ryung),99583,거미의 땅
63528,김동령 (Kim Dong Ryung),50742,아메리칸 앨리
63528,김동령 (Kim Dong Ryung),40796,로스트 & 파운드
299669,김재범,90722,우리 고장의 위인 신동엽
317150,고혜란,88453,점쟁이들
147442,김권,94284,내 안의 영화
147442,김권,94282,ROCK@FUCK
147442,김권,48139,메리고라운드 서커스청년
147442,김권,48606,오르골
147442,김권,29532,피스톨
310972,김건,97462,포커페이스 걸
317153,강애경,88453,점쟁이들
306996,김성훈,97045,흑점
317185,김안라,317118,김은수
317185,김안라,317191,강현석
317185,김안라,317121,강영모
317185,김안라,317123,공민영
317185,김안라,317140,고태은
317185,김안라,317161,김지예
317185,김안라,317160,김영
317185,김안라,317164,김용호
317185,김안라,317156,고승보
317185,김안라,317150,고혜란
317185,김안라,317153,강애경
316357,강신우,316356,김선호
316357,강신우,316355,김태래
316356,김선호,316357,강신우
316356,김선호,316355,김태래
316355,김태래,316357,강신우
316355,김태래,316356,김선호
310560,김나래,310561,김예진
310561,김예진,310560,김나래
317305,김주상,317312,김준미
317305,김주상,317308,김훈영
317305,김주상,317114,강성수
317305,김주상,317309,김균현
317305,김주상,317321,강효민
317305,김주상,317323,김송이
317305,김주상,317319,길병주
317312,김준미,317305,김주상
317312,김준미,317308,김훈영
317312,김준미,317114,강성수
317312,김준미,317309,김균현
317312,김준미,317321,강효민
317312,김준미,317323,김송이
317312,김준미,317319,길병주
317109,김영운,316888,김종곤
317109,김영운,316896,김순하
317109,김영운,316900,김서린
314820,김보경,314819,김그림
314820,김보경,314819,김그림
317118,김은수,317185,김안라
317118,김은수,317191,강현석
317118,김은수,317121,강영모
317118,김은수,317123,공민영
317118,김은수,317140,고태은
317118,김은수,317161,김지예
317118,김은수,317160,김영
317118,김은수,317164,김용호
317118,김은수,317156,고승보
317118,김은수,317150,고혜란
317118,김은수,317153,강애경
317308,김훈영,317305,김주상
317308,김훈영,317312,김준미
317308,김훈영,317114,강성수
317308,김훈영,317309,김균현
317308,김훈영,317321,강효민
317308,김훈영,317323,김송이
317308,김훈영,317319,길병주
317114,강성수,317305,김주상
317114,강성수,317312,김준미
317114,강성수,317308,김훈영
317114,강성수,317309,김균현
317114,강성수,317321,강효민
317114,강성수,317323,김송이
317114,강성수,317319,길병주
317309,김균현,317305,김주상
317309,김균현,317312,김준미
317309,김균현,317308,김훈영
317309,김균현,317114,강성수
317309,김균현,317321,강효민
317309,김균현,317323,김송이
317309,김균현,317319,길병주
317191,강현석,317185,김안라
317191,강현석,317118,김은수
317191,강현석,317121,강영모
317191,강현석,317123,공민영
317191,강현석,317140,고태은
317191,강현석,317161,김지예
317191,강현석,317160,김영
317191,강현석,317164,김용호
317191,강현석,317156,고승보
317191,강현석,317150,고혜란
317191,강현석,317153,강애경
317321,강효민,317164,김용호
317321,강효민,317305,김주상
317321,강효민,317312,김준미
317321,강효민,317308,김훈영
317321,강효민,317114,강성수
317321,강효민,317309,김균현
317321,강효민,317323,김송이
317321,강효민,317319,길병주
316888,김종곤,317109,김영운
316888,김종곤,316896,김순하
316888,김종곤,316900,김서린
317323,김송이,317305,김주상
317323,김송이,317312,김준미
317323,김송이,317308,김훈영
317323,김송이,317114,강성수
317323,김송이,317309,김균현
317323,김송이,317321,강효민
317323,김송이,317319,길병주
317121,강영모,317185,김안라
317121,강영모,317118,김은수
317121,강영모,317191,강현석
317121,강영모,317123,공민영
317121,강영모,317140,고태은
317121,강영모,317161,김지예
317121,강영모,317160,김영
317121,강영모,317164,김용호
317121,강영모,317156,고승보
317121,강영모,317150,고혜란
317121,강영모,317153,강애경
314819,김그림,314820,김보경
314819,김그림,314820,김보경
316896,김순하,317109,김영운
316896,김순하,316888,김종곤
316896,김순하,316900,김서린
317123,공민영,317185,김안라
317123,공민영,317118,김은수
317123,공민영,317191,강현석
317123,공민영,317121,강영모
317123,공민영,317140,고태은
317123,공민영,317161,김지예
317123,공민영,317160,김영
317123,공민영,317164,김용호
317123,공민영,317156,고승보
317123,공민영,317150,고혜란
317123,공민영,317153,강애경
317319,길병주,317305,김주상
317319,길병주,317312,김준미
317319,길병주,317308,김훈영
317319,길병주,317114,강성수
317319,길병주,317309,김균현
317319,길병주,317321,강효민
317319,길병주,317323,김송이
317140,고태은,317185,김안라
317140,고태은,317118,김은수
317140,고태은,317191,강현석
317140,고태은,317121,강영모
317140,고태은,317123,공민영
317140,고태은,317161,김지예
317140,고태은,317160,김영
317140,고태은,317164,김용호
317140,고태은,317156,고승보
317140,고태은,317150,고혜란
317140,고태은,317153,강애경
316900,김서린,317109,김영운
316900,김서린,316888,김종곤
316900,김서린,316896,김순하
317161,김지예,317185,김안라
317161,김지예,317118,김은수
317161,김지예,317191,강현석
317161,김지예,317121,강영모
317161,김지예,317123,공민영
317161,김지예,317140,고태은
317161,김지예,317160,김영
317161,김지예,317164,김용호
317161,김지예,317156,고승보
317161,김지예,317150,고혜란
317161,김지예,317153,강애경
317160,김영,317185,김안라
317160,김영,317118,김은수
317160,김영,317191,강현석
317160,김영,317121,강영모
317160,김영,317123,공민영
317160,김영,317140,고태은
317160,김영,317161,김지예
317160,김영,317164,김용호
317160,김영,317156,고승보
317160,김영,317150,고혜란
317160,김영,317153,강애경
317164,김용호,317321,강효민
317164,김용호,317185,김안라
317164,김용호,317118,김은수
317164,김용호,317191,강현석
317164,김용호,317121,강영모
317164,김용호,317123,공민영
317164,김용호,317140,고태은
317164,김용호,317161,김지예
317164,김용호,317160,김영
317164,김용호,317156,고승보
317164,김용호,317150,고혜란
317164,김용호,317153,강애경
317156,고승보,317185,김안라
317156,고승보,317118,김은수
317156,고승보,317191,강현석
317156,고승보,317121,강영모
317156,고승보,317123,공민영
317156,고승보,317140,고태은
317156,고승보,317161,김지예
317156,고승보,317160,김영
317156,고승보,317164,김용호
317156,고승보,317150,고혜란
317156,고승보,317153,강애경
317150,고혜란,317185,김안라
317150,고혜란,317118,김은수
317150,고혜란,317191,강현석
317150,고혜란,317121,강영모
317150,고혜란,317123,공민영
317150,고혜란,317140,고태은
317150,고혜란,317161,김지예
317150,고혜란,317160,김영
317150,고혜란,317164,김용호
317150,고혜란,317156,고승보
317150,고혜란,317153,강애경
317153,강애경,317185,김안라
317153,강애경,317118,김은수
317153,강애경,317191,강현석
317153,강애경,317121,강영모
317153,강애경,317123,공민영
317153,강애경,317140,고태은
317153,강애경,317161,김지예
317153,강애경,317160,김영
317153,강애경,317164,김용호
317153,강애경,317156,고승보
317153,강애경,317150,고혜란
